jsonFlickrApi({"photos":{"page":1,"pages":3232,"perpage":100,"total":"323132","photo":[{"id":"25715866666","owner":"79350735@N06","secret":"cd0eafd3ab","server":"1676","farm":2,"title":"Canyon Lands","ispublic":1,"isfriend":0,"isfamily":0},{"id":"25111483044","owner":"79350735@N06","secret":"d7e13d9f9c","server":"1603","farm":2,"title":"La Sal Mountains","ispublic":1,"isfriend":0,"isfamily":0},{"id":"25620920512","owner":"79350735@N06","secret":"667a445173","server":"1526","farm":2,"title":"Castle Rock, La Sal Mountains","ispublic":1,"isfriend":0,"isfamily":0},{"id":"25741917285","owner":"79350735@N06","secret":"89e7101081","server":"1541","farm":2,"title":"Castle Rock","ispublic":1,"isfriend":0,"isfamily":0},{"id":"25646847451","owner":"79350735@N06","secret":"2cea01642c","server":"1473","farm":2,"title":"Castle Rock","ispublic":1,"isfriend":0,"isfamily":0},{"id":"25741915975","owner":"79350735@N06","secret":"4ba6cd0691","server":"1519","farm":2,"title":"Castle Rock","ispublic":1,"isfriend":0,"isfamily":0},{"id":"25620917642","owner":"79350735@N06","secret":"f1d0897854","server":"1691","farm":2,"title":"Castle Rock","ispublic":1,"isfriend":0,"isfamily":0},{"id":"25715870746","owner":"79350735@N06","secret":"d0b21de58e","server":"1621","farm":2,"title":"Castle Rock","ispublic":1,"isfriend":0,"isfamily":0},{"id":"25621807992","owner":"46666127@N05","secret":"3de2852605","server":"1525","farm":2,"title":"Colorado3.9-10.2016-1","ispublic":1,"isfriend":0,"isfamily":0},{"id":"25647736901","owner":"46666127@N05","secret":"9a73cb81f4","server":"1583","farm":2,"title":"Colorado3.9-10.2016-2","ispublic":1,"isfriend":0,"isfamily":0},{"id":"25742809585","owner":"46666127@N05","secret":"0651179ef2","server":"1640","farm":2,"title":"Colorado3.9-10.2016-3","ispublic":1,"isfriend":0,"isfamily":0},{"id":"25716757276","owner":"46666127@N05","secret":"48c78085a9","server":"1658","farm":2,"title":"Colorado3.9-10.2016-4","ispublic":1,"isfriend":0,"isfamily":0},{"id":"25112376764","owner":"46666127@N05","secret":"3e4ee5eec9","server":"1599","farm":2,"title":"Colorado3.9-10.2016-5","ispublic":1,"isfriend":0,"isfamily":0},{"id":"25621803882","owner":"46666127@N05","secret":"51d5ac65bc","server":"1466","farm":2,"title":"Colorado3.9-10.2016-6","ispublic":1,"isfriend":0,"isfamily":0},{"id":"25442074100","owner":"46666127@N05","secret":"f3ba0d1f33","server":"1550","farm":2,"title":"Colorado3.9-10.2016-7","ispublic":1,"isfriend":0,"isfamily":0},{"id":"25116182013","owner":"46666127@N05","secret":"6690ab7213","server":"1674","farm":2,"title":"Colorado3.9-10.2016-8","ispublic":1,"isfriend":0,"isfamily":0},{"id":"25112373564","owner":"46666127@N05","secret":"bdf428058c","server":"1582","farm":2,"title":"Colorado3.9-10.2016-9","ispublic":1,"isfriend":0,"isfamily":0},{"id":"25716752246","owner":"46666127@N05","secret":"cdfb7d8171","server":"1597","farm":2,"title":"Colorado3.9-10.2016-10","ispublic":1,"isfriend":0,"isfamily":0},{"id":"25442069980","owner":"46666127@N05","secret":"4ac5284c63","server":"1534","farm":2,"title":"Colorado3.9-10.2016-11","ispublic":1,"isfriend":0,"isfamily":0},{"id":"25716750636","owner":"46666127@N05","secret":"033720c5fb","server":"1697","farm":2,"title":"Colorado3.9-10.2016-12","ispublic":1,"isfriend":0,"isfamily":0},{"id":"25742801205","owner":"46666127@N05","secret":"2c830783ee","server":"1687","farm":2,"title":"Colorado3.9-10.2016-13","ispublic":1,"isfriend":0,"isfamily":0},{"id":"25621796332","owner":"46666127@N05","secret":"126f41d7f0","server":"1443","farm":2,"title":"Colorado3.9-10.2016-14","ispublic":1,"isfriend":0,"isfamily":0},{"id":"25742799095","owner":"46666127@N05","secret":"9b8a78378d","server":"1507","farm":2,"title":"Colorado3.9-10.2016-15","ispublic":1,"isfriend":0,"isfamily":0},{"id":"25116174623","owner":"46666127@N05","secret":"ef0eeea80a","server":"1693","farm":2,"title":"Colorado3.9-10.2016-16","ispublic":1,"isfriend":0,"isfamily":0},{"id":"25621793932","owner":"46666127@N05","secret":"f62e39c9c9","server":"1452","farm":2,"title":"Colorado3.9-10.2016-17","ispublic":1,"isfriend":0,"isfamily":0},{"id":"25116172923","owner":"46666127@N05","secret":"7054f11e6b","server":"1564","farm":2,"title":"Colorado3.9-10.2016-18","ispublic":1,"isfriend":0,"isfamily":0},{"id":"25442062450","owner":"46666127@N05","secret":"ed10bef30e","server":"1484","farm":2,"title":"Colorado3.9-10.2016-19","ispublic":1,"isfriend":0,"isfamily":0},{"id":"25112364394","owner":"46666127@N05","secret":"7587878025","server":"1477","farm":2,"title":"Colorado3.9-10.2016-20","ispublic":1,"isfriend":0,"isfamily":0},{"id":"25112363474","owner":"46666127@N05","secret":"6ee14686a5","server":"1548","farm":2,"title":"Colorado3.9-10.2016-21","ispublic":1,"isfriend":0,"isfamily":0},{"id":"25742793465","owner":"46666127@N05","secret":"bf304f2aae","server":"1447","farm":2,"title":"Colorado3.9-10.2016-22","ispublic":1,"isfriend":0,"isfamily":0},{"id":"25116168543","owner":"46666127@N05","secret":"2d6fc4ed89","server":"1568","farm":2,"title":"Colorado3.9-10.2016-23","ispublic":1,"isfriend":0,"isfamily":0},{"id":"25647717721","owner":"46666127@N05","secret":"3884a5f856","server":"1500","farm":2,"title":"Colorado3.9-10.2016-24","ispublic":1,"isfriend":0,"isfamily":0},{"id":"25621786702","owner":"46666127@N05","secret":"3149572c75","server":"1490","farm":2,"title":"Colorado3.9-10.2016-25","ispublic":1,"isfriend":0,"isfamily":0},{"id":"25116165573","owner":"46666127@N05","secret":"225c21e83d","server":"1598","farm":2,"title":"Colorado3.9-10.2016-26","ispublic":1,"isfriend":0,"isfamily":0},{"id":"25647714661","owner":"46666127@N05","secret":"b10d90a05e","server":"1444","farm":2,"title":"Colorado3.9-10.2016-27","ispublic":1,"isfriend":0,"isfamily":0},{"id":"25621782702","owner":"27538682@N05","secret":"08b7b82973","server":"1681","farm":2,"title":"mountain pano","ispublic":1,"isfriend":0,"isfamily":0},{"id":"25742787085","owner":"46666127@N05","secret":"c02df39227","server":"1565","farm":2,"title":"Colorado3.9-10.2016-28","ispublic":1,"isfriend":0,"isfamily":0},{"id":"25112355364","owner":"46666127@N05","secret":"2ebc2a4dc0","server":"1637","farm":2,"title":"Colorado3.9-10.2016-29","ispublic":1,"isfriend":0,"isfamily":0},{"id":"25116160633","owner":"46666127@N05","secret":"b3db0c2a94","server":"1680","farm":2,"title":"Colorado3.9-10.2016-30","ispublic":1,"isfriend":0,"isfamily":0},{"id":"25716730146","owner":"46666127@N05","secret":"a47b037726","server":"1468","farm":2,"title":"Colorado3.9-10.2016-32","ispublic":1,"isfriend":0,"isfamily":0},{"id":"25116157293","owner":"46666127@N05","secret":"5ae95f95b6","server":"1647","farm":2,"title":"Colorado3.9-10.2016-33","ispublic":1,"isfriend":0,"isfamily":0},{"id":"25116155833","owner":"46666127@N05","secret":"4f6f6132fd","server":"1623","farm":2,"title":"Colorado3.9-10.2016-34","ispublic":1,"isfriend":0,"isfamily":0},{"id":"25647705071","owner":"46666127@N05","secret":"4d2f4094de","server":"1497","farm":2,"title":"Colorado3.9-10.2016-35","ispublic":1,"isfriend":0,"isfamily":0},{"id":"25116151613","owner":"46666127@N05","secret":"c4a8654359","server":"1520","farm":2,"title":"Colorado3.9-10.2016-37","ispublic":1,"isfriend":0,"isfamily":0},{"id":"25116150713","owner":"46666127@N05","secret":"9249c4f3ab","server":"1545","farm":2,"title":"Colorado3.9-10.2016-38","ispublic":1,"isfriend":0,"isfamily":0},{"id":"25442040120","owner":"46666127@N05","secret":"c06c9c10eb","server":"1466","farm":2,"title":"Colorado3.9-10.2016-39","ispublic":1,"isfriend":0,"isfamily":0},{"id":"25647698791","owner":"46666127@N05","secret":"cd66ed39f2","server":"1455","farm":2,"title":"Colorado3.9-10.2016-40","ispublic":1,"isfriend":0,"isfamily":0},{"id":"25112337694","owner":"46666127@N05","secret":"e6366df127","server":"1545","farm":2,"title":"Colorado3.9-10.2016-41","ispublic":1,"isfriend":0,"isfamily":0},{"id":"25621763012","owner":"46666127@N05","secret":"f15b7ca958","server":"1637","farm":2,"title":"Colorado3.9-10.2016-42","ispublic":1,"isfriend":0,"isfamily":0},{"id":"25442028520","owner":"46666127@N05","secret":"6b62c6d89c","server":"1583","farm":2,"title":"Colorado3.9-10.2016-43","ispublic":1,"isfriend":0,"isfamily":0},{"id":"25621756492","owner":"46666127@N05","secret":"8ed9c75e28","server":"1712","farm":2,"title":"Colorado3.9-10.2016-44","ispublic":1,"isfriend":0,"isfamily":0},{"id":"25112328224","owner":"46666127@N05","secret":"8050e4fa0d","server":"1670","farm":2,"title":"Colorado3.9-10.2016-45","ispublic":1,"isfriend":0,"isfamily":0},{"id":"25116133893","owner":"46666127@N05","secret":"5388ae323b","server":"1697","farm":2,"title":"Colorado3.9-10.2016-46","ispublic":1,"isfriend":0,"isfamily":0},{"id":"25112326704","owner":"46666127@N05","secret":"5a3ba45bda","server":"1441","farm":2,"title":"Colorado3.9-10.2016-47","ispublic":1,"isfriend":0,"isfamily":0},{"id":"25442022740","owner":"46666127@N05","secret":"5d81d5337f","server":"1535","farm":2,"title":"Colorado3.9-10.2016-48","ispublic":1,"isfriend":0,"isfamily":0},{"id":"25716702636","owner":"46666127@N05","secret":"9d0f0ec340","server":"1558","farm":2,"title":"Colorado3.9-10.2016-49","ispublic":1,"isfriend":0,"isfamily":0},{"id":"25621749762","owner":"46666127@N05","secret":"66524a11b7","server":"1443","farm":2,"title":"Colorado3.9-10.2016-50","ispublic":1,"isfriend":0,"isfamily":0},{"id":"25716700746","owner":"46666127@N05","secret":"e0d191b6d0","server":"1520","farm":2,"title":"Colorado3.9-10.2016-51","ispublic":1,"isfriend":0,"isfamily":0},{"id":"25112322034","owner":"46666127@N05","secret":"9775ec9f2c","server":"1626","farm":2,"title":"Colorado3.9-10.2016-52","ispublic":1,"isfriend":0,"isfamily":0},{"id":"25716699196","owner":"46666127@N05","secret":"0bc5085f27","server":"1457","farm":2,"title":"Colorado3.9-10.2016-53","ispublic":1,"isfriend":0,"isfamily":0},{"id":"25621745682","owner":"46666127@N05","secret":"b2254460aa","server":"1644","farm":2,"title":"Colorado3.9-10.2016-54","ispublic":1,"isfriend":0,"isfamily":0},{"id":"25716697116","owner":"46666127@N05","secret":"93f8a1540e","server":"1614","farm":2,"title":"Colorado3.9-10.2016-55","ispublic":1,"isfriend":0,"isfamily":0},{"id":"25621743632","owner":"46666127@N05","secret":"aa51eab901","server":"1625","farm":2,"title":"Colorado3.9-10.2016-56","ispublic":1,"isfriend":0,"isfamily":0},{"id":"25742747475","owner":"46666127@N05","secret":"e42331d320","server":"1607","farm":2,"title":"Colorado3.9-10.2016-57","ispublic":1,"isfriend":0,"isfamily":0},{"id":"25442012300","owner":"46666127@N05","secret":"e03b95ca35","server":"1470","farm":2,"title":"Colorado3.9-10.2016-58","ispublic":1,"isfriend":0,"isfamily":0},{"id":"25742744935","owner":"46666127@N05","secret":"0cd1b64a2b","server":"1643","farm":2,"title":"Colorado3.9-10.2016-59","ispublic":1,"isfriend":0,"isfamily":0},{"id":"25621737772","owner":"46666127@N05","secret":"4f4b8a0372","server":"1565","farm":2,"title":"Colorado3.9-10.2016-60","ispublic":1,"isfriend":0,"isfamily":0},{"id":"25442007410","owner":"46666127@N05","secret":"4c22f5e59f","server":"1521","farm":2,"title":"Colorado3.9-10.2016-61","ispublic":1,"isfriend":0,"isfamily":0},{"id":"25742740925","owner":"46666127@N05","secret":"53f72fc7d4","server":"1637","farm":2,"title":"Colorado3.9-10.2016-62","ispublic":1,"isfriend":0,"isfamily":0},{"id":"25716687526","owner":"46666127@N05","secret":"e04790098a","server":"1636","farm":2,"title":"Colorado3.9-10.2016-63","ispublic":1,"isfriend":0,"isfamily":0},{"id":"25112308064","owner":"46666127@N05","secret":"1b27c9bdbe","server":"1685","farm":2,"title":"Colorado3.9-10.2016-64","ispublic":1,"isfriend":0,"isfamily":0},{"id":"25742737175","owner":"46666127@N05","secret":"668768143f","server":"1616","farm":2,"title":"Colorado3.9-10.2016-65","ispublic":1,"isfriend":0,"isfamily":0},{"id":"25647660991","owner":"46666127@N05","secret":"190bcd555b","server":"1599","farm":2,"title":"Colorado3.9-10.2016-67","ispublic":1,"isfriend":0,"isfamily":0},{"id":"25116108453","owner":"46666127@N05","secret":"d2308b3804","server":"1470","farm":2,"title":"Colorado3.9-10.2016-69","ispublic":1,"isfriend":0,"isfamily":0},{"id":"25647657521","owner":"46666127@N05","secret":"65cfdc425c","server":"1623","farm":2,"title":"Colorado3.9-10.2016-70","ispublic":1,"isfriend":0,"isfamily":0},{"id":"25112298374","owner":"46666127@N05","secret":"6b8fb2a657","server":"1468","farm":2,"title":"Colorado3.9-10.2016-72","ispublic":1,"isfriend":0,"isfamily":0},{"id":"25441992600","owner":"46666127@N05","secret":"58234677f8","server":"1547","farm":2,"title":"Colorado3.9-10.2016-73","ispublic":1,"isfriend":0,"isfamily":0},{"id":"25112295694","owner":"46666127@N05","secret":"c353c80943","server":"1648","farm":2,"title":"Colorado3.9-10.2016-74","ispublic":1,"isfriend":0,"isfamily":0},{"id":"25441990170","owner":"46666127@N05","secret":"e47a6b2759","server":"1666","farm":2,"title":"Colorado3.9-10.2016-75","ispublic":1,"isfriend":0,"isfamily":0},{"id":"25742724235","owner":"46666127@N05","secret":"ae863382f9","server":"1554","farm":2,"title":"Colorado3.9-10.2016-76","ispublic":1,"isfriend":0,"isfamily":0},{"id":"25116098053","owner":"46666127@N05","secret":"2d49935bfb","server":"1479","farm":2,"title":"Colorado3.9-10.2016-77","ispublic":1,"isfriend":0,"isfamily":0},{"id":"25112290564","owner":"46666127@N05","secret":"6c5278cf35","server":"1556","farm":2,"title":"Colorado3.9-10.2016-78","ispublic":1,"isfriend":0,"isfamily":0},{"id":"25716667006","owner":"46666127@N05","secret":"51eb3cdb0a","server":"1631","farm":2,"title":"Colorado3.9-10.2016-79","ispublic":1,"isfriend":0,"isfamily":0},{"id":"25647644351","owner":"46666127@N05","secret":"2e824b047d","server":"1715","farm":2,"title":"Colorado3.9-10.2016-80","ispublic":1,"isfriend":0,"isfamily":0},{"id":"25441982460","owner":"46666127@N05","secret":"d8b750d5a2","server":"1458","farm":2,"title":"Colorado3.9-10.2016-81","ispublic":1,"isfriend":0,"isfamily":0},{"id":"25742716175","owner":"46666127@N05","secret":"71b2e221f4","server":"1624","farm":2,"title":"Colorado3.9-10.2016-82","ispublic":1,"isfriend":0,"isfamily":0},{"id":"25441979890","owner":"46666127@N05","secret":"25999f9700","server":"1458","farm":2,"title":"Colorado3.9-10.2016-83","ispublic":1,"isfriend":0,"isfamily":0},{"id":"25116088363","owner":"46666127@N05","secret":"4ae98cc1eb","server":"1497","farm":2,"title":"Colorado3.9-10.2016-84","ispublic":1,"isfriend":0,"isfamily":0},{"id":"25716660196","owner":"46666127@N05","secret":"0f7d69a1c9","server":"1474","farm":2,"title":"Colorado3.9-10.2016-85","ispublic":1,"isfriend":0,"isfamily":0},{"id":"25441976090","owner":"46666127@N05","secret":"a8a061576e","server":"1625","farm":2,"title":"Colorado3.9-10.2016-86","ispublic":1,"isfriend":0,"isfamily":0},{"id":"25621703982","owner":"46666127@N05","secret":"da2fd52490","server":"1531","farm":2,"title":"Colorado3.9-10.2016-87","ispublic":1,"isfriend":0,"isfamily":0},{"id":"25621702722","owner":"46666127@N05","secret":"0114e0896b","server":"1602","farm":2,"title":"Colorado3.9-10.2016-88","ispublic":1,"isfriend":0,"isfamily":0},{"id":"25112276064","owner":"46666127@N05","secret":"cdb4baa705","server":"1549","farm":2,"title":"Colorado3.9-10.2016-89","ispublic":1,"isfriend":0,"isfamily":0},{"id":"25441970330","owner":"46666127@N05","secret":"6d0d21d4c9","server":"1517","farm":2,"title":"Colorado3.9-10.2016-90","ispublic":1,"isfriend":0,"isfamily":0},{"id":"25621698262","owner":"46666127@N05","secret":"2a08bdb9af","server":"1538","farm":2,"title":"Colorado3.9-10.2016-91","ispublic":1,"isfriend":0,"isfamily":0},{"id":"25112272504","owner":"46666127@N05","secret":"4e180b866c","server":"1681","farm":2,"title":"Colorado3.9-10.2016-92","ispublic":1,"isfriend":0,"isfamily":0},{"id":"25621696062","owner":"46666127@N05","secret":"bfc1350e51","server":"1552","farm":2,"title":"Colorado3.9-10.2016-93","ispublic":1,"isfriend":0,"isfamily":0},{"id":"25647626551","owner":"46666127@N05","secret":"3079c0e941","server":"1579","farm":2,"title":"Colorado3.9-10.2016-94","ispublic":1,"isfriend":0,"isfamily":0},{"id":"25116074083","owner":"46666127@N05","secret":"aa4caf87d3","server":"1674","farm":2,"title":"Colorado3.9-10.2016-95","ispublic":1,"isfriend":0,"isfamily":0},{"id":"25621692232","owner":"46666127@N05","secret":"cc4e790862","server":"1526","farm":2,"title":"Colorado3.9-10.2016-96","ispublic":1,"isfriend":0,"isfamily":0}]},"stat":"ok"})