jsonFlickrApi({"photos":{"page":1,"pages":3254,"perpage":100,"total":"325305","photo":[{"id":"25499512770","owner":"72502941@N07","secret":"06d3a281b6","server":"1625","farm":2,"title":"Opposites Attract","ispublic":1,"isfriend":0,"isfamily":0},{"id":"25678975662","owner":"131451001@N07","secret":"a3398ee7b2","server":"1610","farm":2,"title":"One","ispublic":1,"isfriend":0,"isfamily":0},{"id":"25704790861","owner":"89081462@N03","secret":"0ca5738097","server":"1613","farm":2,"title":"Mt Graham","ispublic":1,"isfriend":0,"isfamily":0},{"id":"25773645106","owner":"100697417@N04","secret":"7e788a29fe","server":"1707","farm":2,"title":"Essential Santa Barbara","ispublic":1,"isfriend":0,"isfamily":0},{"id":"25678561102","owner":"9589165@N02","secret":"aeb1b4c391","server":"1613","farm":2,"title":"DirtyDancingWknd (1 of 1)","ispublic":1,"isfriend":0,"isfamily":0},{"id":"25498856790","owner":"9589165@N02","secret":"9339bef853","server":"1601","farm":2,"title":"DirtyDancingWknd (1 of 46)","ispublic":1,"isfriend":0,"isfamily":0},{"id":"25678549432","owner":"9589165@N02","secret":"524c3530dc","server":"1658","farm":2,"title":"DirtyDancingWknd (2 of 46)","ispublic":1,"isfriend":0,"isfamily":0},{"id":"25172903883","owner":"29853806@N08","secret":"46cfe3b26d","server":"1615","farm":2,"title":"Idaho Scenic Byway","ispublic":1,"isfriend":0,"isfamily":0},{"id":"25678539142","owner":"9589165@N02","secret":"f12d890da3","server":"1691","farm":2,"title":"DirtyDancingWknd (4 of 46)","ispublic":1,"isfriend":0,"isfamily":0},{"id":"25169016384","owner":"9589165@N02","secret":"db2555f453","server":"1644","farm":2,"title":"DirtyDancingWknd (6 of 46)","ispublic":1,"isfriend":0,"isfamily":0},{"id":"25799510375","owner":"9589165@N02","secret":"6312250403","server":"1614","farm":2,"title":"DirtyDancingWknd (7 of 46)","ispublic":1,"isfriend":0,"isfamily":0},{"id":"25172875853","owner":"9589165@N02","secret":"f1313e197d","server":"1696","farm":2,"title":"DirtyDancingWknd (8 of 46)","ispublic":1,"isfriend":0,"isfamily":0},{"id":"25498809700","owner":"9589165@N02","secret":"4dcb68aaf1","server":"1667","farm":2,"title":"DirtyDancingWknd (10 of 46)","ispublic":1,"isfriend":0,"isfamily":0},{"id":"25498806360","owner":"9589165@N02","secret":"77a4895c67","server":"1617","farm":2,"title":"DirtyDancingWknd (11 of 46)","ispublic":1,"isfriend":0,"isfamily":0},{"id":"25678497862","owner":"9589165@N02","secret":"5eacf6fd4a","server":"1656","farm":2,"title":"DirtyDancingWknd (12 of 46)","ispublic":1,"isfriend":0,"isfamily":0},{"id":"25704379111","owner":"9589165@N02","secret":"9be1d3c71f","server":"1585","farm":2,"title":"DirtyDancingWknd (13 of 46)","ispublic":1,"isfriend":0,"isfamily":0},{"id":"25773388766","owner":"9589165@N02","secret":"ccc53b99ee","server":"1636","farm":2,"title":"DirtyDancingWknd (14 of 46)","ispublic":1,"isfriend":0,"isfamily":0},{"id":"25678481952","owner":"9589165@N02","secret":"a61e94b3fc","server":"1669","farm":2,"title":"DirtyDancingWknd (15 of 46)","ispublic":1,"isfriend":0,"isfamily":0},{"id":"25168964504","owner":"9589165@N02","secret":"fd13ef0851","server":"1581","farm":2,"title":"DirtyDancingWknd (16 of 46)","ispublic":1,"isfriend":0,"isfamily":0},{"id":"25704355941","owner":"9589165@N02","secret":"c38e69a860","server":"1700","farm":2,"title":"DirtyDancingWknd (18 of 46)","ispublic":1,"isfriend":0,"isfamily":0},{"id":"25168946834","owner":"9589165@N02","secret":"e1d8ae7a43","server":"1706","farm":2,"title":"DirtyDancingWknd (19 of 46)","ispublic":1,"isfriend":0,"isfamily":0},{"id":"25773357666","owner":"9589165@N02","secret":"05d6e8c5b1","server":"1583","farm":2,"title":"DirtyDancingWknd (20 of 46)","ispublic":1,"isfriend":0,"isfamily":0},{"id":"25498749840","owner":"9589165@N02","secret":"63b11672fb","server":"1636","farm":2,"title":"DirtyDancingWknd (21 of 46)","ispublic":1,"isfriend":0,"isfamily":0},{"id":"25799427625","owner":"9589165@N02","secret":"4522f7bcc4","server":"1615","farm":2,"title":"DirtyDancingWknd (22 of 46)","ispublic":1,"isfriend":0,"isfamily":0},{"id":"25704322881","owner":"9589165@N02","secret":"49f0894a8b","server":"1673","farm":2,"title":"DirtyDancingWknd (23 of 46)","ispublic":1,"isfriend":0,"isfamily":0},{"id":"25172782863","owner":"9589165@N02","secret":"2027da3f78","server":"1668","farm":2,"title":"DirtyDancingWknd (24 of 46)","ispublic":1,"isfriend":0,"isfamily":0},{"id":"25799403775","owner":"9589165@N02","secret":"938a2902f9","server":"1624","farm":2,"title":"DirtyDancingWknd (25 of 46)","ispublic":1,"isfriend":0,"isfamily":0},{"id":"25172767363","owner":"9589165@N02","secret":"d3a7888b75","server":"1654","farm":2,"title":"DirtyDancingWknd (26 of 46)","ispublic":1,"isfriend":0,"isfamily":0},{"id":"25799388285","owner":"9589165@N02","secret":"f5d3024eb0","server":"1690","farm":2,"title":"DirtyDancingWknd (27 of 46)","ispublic":1,"isfriend":0,"isfamily":0},{"id":"25168874714","owner":"9589165@N02","secret":"38d13720ba","server":"1645","farm":2,"title":"DirtyDancingWknd (29 of 46)","ispublic":1,"isfriend":0,"isfamily":0},{"id":"25704269411","owner":"9589165@N02","secret":"a50b9101f5","server":"1622","farm":2,"title":"DirtyDancingWknd (30 of 46)","ispublic":1,"isfriend":0,"isfamily":0},{"id":"25773278626","owner":"9589165@N02","secret":"22da1ee558","server":"1651","farm":2,"title":"DirtyDancingWknd (31 of 46)","ispublic":1,"isfriend":0,"isfamily":0},{"id":"25168854834","owner":"9589165@N02","secret":"37fdb8015c","server":"1626","farm":2,"title":"DirtyDancingWknd (32 of 46)","ispublic":1,"isfriend":0,"isfamily":0},{"id":"25172718943","owner":"9589165@N02","secret":"8ed39b574d","server":"1657","farm":2,"title":"DirtyDancingWknd (33 of 46)","ispublic":1,"isfriend":0,"isfamily":0},{"id":"25678359032","owner":"9589165@N02","secret":"cacf19fdd7","server":"1634","farm":2,"title":"DirtyDancingWknd (34 of 46)","ispublic":1,"isfriend":0,"isfamily":0},{"id":"25704241071","owner":"9589165@N02","secret":"db981efc1d","server":"1583","farm":2,"title":"DirtyDancingWknd (35 of 46)","ispublic":1,"isfriend":0,"isfamily":0},{"id":"25172695883","owner":"9589165@N02","secret":"fec01b4980","server":"1587","farm":2,"title":"DirtyDancingWknd (37 of 46)","ispublic":1,"isfriend":0,"isfamily":0},{"id":"25498637750","owner":"9589165@N02","secret":"f2d629d0ce","server":"1605","farm":2,"title":"DirtyDancingWknd (38 of 46)","ispublic":1,"isfriend":0,"isfamily":0},{"id":"25172688003","owner":"9589165@N02","secret":"f8408a6bb9","server":"1634","farm":2,"title":"DirtyDancingWknd (39 of 46)","ispublic":1,"isfriend":0,"isfamily":0},{"id":"25678324342","owner":"9589165@N02","secret":"9c4c166778","server":"1617","farm":2,"title":"DirtyDancingWknd (40 of 46)","ispublic":1,"isfriend":0,"isfamily":0},{"id":"25498618720","owner":"9589165@N02","secret":"4d5266912b","server":"1607","farm":2,"title":"DirtyDancingWknd (41 of 46)","ispublic":1,"isfriend":0,"isfamily":0},{"id":"25168800544","owner":"9589165@N02","secret":"a49354698b","server":"1671","farm":2,"title":"DirtyDancingWknd (42 of 46)","ispublic":1,"isfriend":0,"isfamily":0},{"id":"25172664853","owner":"9589165@N02","secret":"d0a0d97120","server":"1711","farm":2,"title":"DirtyDancingWknd (43 of 46)","ispublic":1,"isfriend":0,"isfamily":0},{"id":"25678298782","owner":"9589165@N02","secret":"96af14620c","server":"1690","farm":2,"title":"DirtyDancingWknd (45 of 46)","ispublic":1,"isfriend":0,"isfamily":0},{"id":"25704116351","owner":"20286982@N07","secret":"8125cb6497","server":"1584","farm":2,"title":"View to the West","ispublic":1,"isfriend":0,"isfamily":0},{"id":"25498525000","owner":"20286982@N07","secret":"078cee210f","server":"1662","farm":2,"title":"Over Telluride","ispublic":1,"isfriend":0,"isfamily":0},{"id":"25498524800","owner":"20286982@N07","secret":"9baa159612","server":"1685","farm":2,"title":"Ominous","ispublic":1,"isfriend":0,"isfamily":0},{"id":"25704115241","owner":"20286982@N07","secret":"1f2e1fc4b8","server":"1694","farm":2,"title":"At Colorado National Monument","ispublic":1,"isfriend":0,"isfamily":0},{"id":"25703905591","owner":"16994861@N08","secret":"57d51a6e8f","server":"1592","farm":2,"title":"DSC02350","ispublic":1,"isfriend":0,"isfamily":0},{"id":"25703903691","owner":"16994861@N08","secret":"f2718b1c19","server":"1641","farm":2,"title":"DSC02349","ispublic":1,"isfriend":0,"isfamily":0},{"id":"25678015252","owner":"16994861@N08","secret":"fa5cf8c006","server":"1581","farm":2,"title":"DSC02348","ispublic":1,"isfriend":0,"isfamily":0},{"id":"25498310680","owner":"16994861@N08","secret":"f4ce87b841","server":"1620","farm":2,"title":"DSC02340","ispublic":1,"isfriend":0,"isfamily":0},{"id":"25703899201","owner":"16994861@N08","secret":"6544282a05","server":"1719","farm":2,"title":"DSC02333","ispublic":1,"isfriend":0,"isfamily":0},{"id":"25172364743","owner":"16994861@N08","secret":"06d29e6587","server":"1608","farm":2,"title":"DSC02332","ispublic":1,"isfriend":0,"isfamily":0},{"id":"25798993245","owner":"16994861@N08","secret":"a84042d17b","server":"1581","farm":2,"title":"DSC02329","ispublic":1,"isfriend":0,"isfamily":0},{"id":"25678005872","owner":"16994861@N08","secret":"c12c383bb2","server":"1655","farm":2,"title":"DSC02326","ispublic":1,"isfriend":0,"isfamily":0},{"id":"25703891131","owner":"16994861@N08","secret":"7f1d2853a7","server":"1713","farm":2,"title":"DSC02324","ispublic":1,"isfriend":0,"isfamily":0},{"id":"25168491464","owner":"16994861@N08","secret":"f8042b7a72","server":"1675","farm":2,"title":"DSC02320","ispublic":1,"isfriend":0,"isfamily":0},{"id":"25677828042","owner":"35427031@N06","secret":"d5a20a9bc8","server":"1666","farm":2,"title":"On the road...South Island, New Zealand","ispublic":1,"isfriend":0,"isfamily":0},{"id":"25168195914","owner":"87791108@N00","secret":"42b3f51570","server":"1607","farm":2,"title":"20160218_6366 tree silhouette","ispublic":1,"isfriend":0,"isfamily":0},{"id":"25498000650","owner":"87791108@N00","secret":"1886de77d4","server":"1691","farm":2,"title":"20160218_6368 old Banksia cone","ispublic":1,"isfriend":0,"isfamily":0},{"id":"25798596375","owner":"14723335@N05","secret":"482f012212","server":"1679","farm":2,"title":"Looking Across a Grassy Meadow to Aspen Trees and Mountains","ispublic":1,"isfriend":0,"isfamily":0},{"id":"25166985064","owner":"57710317@N02","secret":"b97d1628e7","server":"1711","farm":2,"title":"Green Canyon is pretty","ispublic":1,"isfriend":0,"isfamily":0},{"id":"25797359675","owner":"57710317@N02","secret":"88f08520cd","server":"1606","farm":2,"title":"Green Canyon in North Logan","ispublic":1,"isfriend":0,"isfamily":0},{"id":"25496166870","owner":"57710317@N02","secret":"3b16fee1c4","server":"1668","farm":2,"title":"The Green Canyon cave","ispublic":1,"isfriend":0,"isfamily":0},{"id":"25166301634","owner":"57710317@N02","secret":"5f168d3e20","server":"1616","farm":2,"title":"Jovie hiking up to the cave 3","ispublic":1,"isfriend":0,"isfamily":0},{"id":"25170100043","owner":"57710317@N02","secret":"33efe5c465","server":"1622","farm":2,"title":"Olsen up on a hill","ispublic":1,"isfriend":0,"isfamily":0},{"id":"25497978460","owner":"30795200@N05","secret":"5337e5dc43","server":"1598","farm":2,"title":"","ispublic":1,"isfriend":0,"isfamily":0},{"id":"25703515981","owner":"137162303@N05","secret":"dd6b9fa8dd","server":"1681","farm":2,"title":"Mountain Pass","ispublic":1,"isfriend":0,"isfamily":0},{"id":"25677624822","owner":"137162303@N05","secret":"ef4f21bcb0","server":"1671","farm":2,"title":"Slopes","ispublic":1,"isfriend":0,"isfamily":0},{"id":"25168084094","owner":"138184498@N08","secret":"ed4310b305","server":"1625","farm":2,"title":"Desert Exploration Series","ispublic":1,"isfriend":0,"isfamily":0},{"id":"25677527042","owner":"133829326@N07","secret":"d7cb4bbb58","server":"1651","farm":2,"title":"Hiding Behind","ispublic":1,"isfriend":0,"isfamily":0},{"id":"25772335596","owner":"54515311@N00","secret":"4058aaace3","server":"1642","farm":2,"title":"The mists of Montserrat","ispublic":1,"isfriend":0,"isfamily":0},{"id":"25772309716","owner":"54868730@N00","secret":"1444587cbf","server":"1592","farm":2,"title":"Mount Edith Cavell","ispublic":1,"isfriend":0,"isfamily":0},{"id":"25171736073","owner":"132586502@N03","secret":"700e8648b2","server":"1609","farm":2,"title":"Crawford Notch","ispublic":1,"isfriend":0,"isfamily":0},{"id":"25171718093","owner":"45621409@N03","secret":"7290a23ba0","server":"1643","farm":2,"title":"NC Valleys in BW","ispublic":1,"isfriend":0,"isfamily":0},{"id":"25497602380","owner":"56404510@N05","secret":"2eac0c837a","server":"1691","farm":2,"title":"Baie bleu \/ Blue bay","ispublic":1,"isfriend":0,"isfamily":0},{"id":"25167661844","owner":"119003144@N05","secret":"84a972fdab","server":"1698","farm":2,"title":"DSC_5618-Edit-Edit (Custom)","ispublic":1,"isfriend":0,"isfamily":0},{"id":"25167659964","owner":"119003144@N05","secret":"894796ebdf","server":"1670","farm":2,"title":"DSC_5626-Edit-Edit (Custom)","ispublic":1,"isfriend":0,"isfamily":0},{"id":"25772073426","owner":"119003144@N05","secret":"b9a3071cbc","server":"1592","farm":2,"title":"DSC_5630-Edit-Edit (Custom)","ispublic":1,"isfriend":0,"isfamily":0},{"id":"25772071686","owner":"119003144@N05","secret":"ec56ec105d","server":"1703","farm":2,"title":"DSC_5652-Edit-Edit (Custom)","ispublic":1,"isfriend":0,"isfamily":0},{"id":"25677166782","owner":"119003144@N05","secret":"ea1c74b059","server":"1614","farm":2,"title":"DSC_5660-Edit-Edit (Custom)","ispublic":1,"isfriend":0,"isfamily":0},{"id":"25703054241","owner":"119003144@N05","secret":"89e95ed492","server":"1600","farm":2,"title":"DSC_5667-Edit-Edit (Custom)","ispublic":1,"isfriend":0,"isfamily":0},{"id":"25703052071","owner":"119003144@N05","secret":"4d677595c9","server":"1717","farm":2,"title":"DSC_5672-Edit-Edit (Custom)","ispublic":1,"isfriend":0,"isfamily":0},{"id":"25772062916","owner":"119003144@N05","secret":"602cdd9801","server":"1678","farm":2,"title":"DSC_5694-Edit-Edit (Custom)","ispublic":1,"isfriend":0,"isfamily":0},{"id":"25171512833","owner":"119003144@N05","secret":"287b07760f","server":"1658","farm":2,"title":"DSC_5699-Edit-Edit (Custom)","ispublic":1,"isfriend":0,"isfamily":0},{"id":"25171510733","owner":"119003144@N05","secret":"dc4c2f9e4c","server":"1607","farm":2,"title":"DSC_5703-Edit-Edit (Custom)","ispublic":1,"isfriend":0,"isfamily":0},{"id":"25167640764","owner":"119003144@N05","secret":"045c8609ee","server":"1613","farm":2,"title":"DSC_5709-Edit-Edit (Custom)","ispublic":1,"isfriend":0,"isfamily":0},{"id":"25167638824","owner":"119003144@N05","secret":"310a337700","server":"1627","farm":2,"title":"DSC_5713-Edit-Edit (Custom)","ispublic":1,"isfriend":0,"isfamily":0},{"id":"25167637204","owner":"119003144@N05","secret":"9b29994e4c","server":"1683","farm":2,"title":"DSC_5718-Edit-Edit-2 (Custom)","ispublic":1,"isfriend":0,"isfamily":0},{"id":"25798135235","owner":"119003144@N05","secret":"7f950517ba","server":"1638","farm":2,"title":"DSC_5720-Edit-Edit (Custom)","ispublic":1,"isfriend":0,"isfamily":0},{"id":"25497444030","owner":"119003144@N05","secret":"b0fa707dbd","server":"1696","farm":2,"title":"DSC_5720-Edit-Edit-2 (Custom)","ispublic":1,"isfriend":0,"isfamily":0},{"id":"25798131215","owner":"119003144@N05","secret":"1e98408c8a","server":"1673","farm":2,"title":"DSC_5721-Edit-Edit (Custom)","ispublic":1,"isfriend":0,"isfamily":0},{"id":"25171494353","owner":"119003144@N05","secret":"b683153de6","server":"1671","farm":2,"title":"DSC_5724-Edit-Edit (Custom)","ispublic":1,"isfriend":0,"isfamily":0},{"id":"25171491493","owner":"119003144@N05","secret":"e1b1468eca","server":"1689","farm":2,"title":"DSC_5727-Edit-Edit (Custom)","ispublic":1,"isfriend":0,"isfamily":0},{"id":"25772037296","owner":"119003144@N05","secret":"1bac87e98c","server":"1685","farm":2,"title":"DSC_5734-Edit-Edit (Custom)","ispublic":1,"isfriend":0,"isfamily":0},{"id":"25497430540","owner":"119003144@N05","secret":"21061bb3c3","server":"1684","farm":2,"title":"DSC_5735-Edit-Edit (Custom)","ispublic":1,"isfriend":0,"isfamily":0},{"id":"25496257480","owner":"10265767@N08","secret":"bdd9878ea4","server":"1633","farm":2,"title":"Marshmallow Rock.","ispublic":1,"isfriend":0,"isfamily":0},{"id":"25796950225","owner":"10265767@N08","secret":"90c489a392","server":"1666","farm":2,"title":"A view in to the canyon","ispublic":1,"isfriend":0,"isfamily":0},{"id":"25701838561","owner":"10265767@N08","secret":"f96b58deea","server":"1694","farm":2,"title":"Cloudy Winter Day in the Valley","ispublic":1,"isfriend":0,"isfamily":0}]},"stat":"ok"})