jsonFlickrApi({"photos":{"page":1,"pages":6571,"perpage":50,"total":"328508","photo":[{"id":"25690194972","owner":"135629478@N02","secret":"8ce1640af1","server":"1688","farm":2,"title":"Two Tiny Mushrooms","ispublic":1,"isfriend":0,"isfamily":0},{"id":"25184518723","owner":"135629478@N02","secret":"85c96ee300","server":"1687","farm":2,"title":"More Fungus","ispublic":1,"isfriend":0,"isfamily":0},{"id":"25180622904","owner":"135629478@N02","secret":"fedccf0ee0","server":"1686","farm":2,"title":"Spider 2","ispublic":1,"isfriend":0,"isfamily":0},{"id":"25690126772","owner":"135629478@N02","secret":"a8332f8dbc","server":"1716","farm":2,"title":"Spider 1","ispublic":1,"isfriend":0,"isfamily":0},{"id":"25811076185","owner":"135629478@N02","secret":"7c20ebb57e","server":"1591","farm":2,"title":"Fungus on tree","ispublic":1,"isfriend":0,"isfamily":0},{"id":"25180432214","owner":"131559064@N02","secret":"5211f34dd8","server":"1665","farm":2,"title":"B\u00e4chlital","ispublic":1,"isfriend":0,"isfamily":0},{"id":"25180430764","owner":"131559064@N02","secret":"63dd679fe2","server":"1715","farm":2,"title":"B\u00e4chlital","ispublic":1,"isfriend":0,"isfamily":0},{"id":"25510234920","owner":"131559064@N02","secret":"f6748b1b4e","server":"1582","farm":2,"title":"B\u00e4chlital","ispublic":1,"isfriend":0,"isfamily":0},{"id":"25184268903","owner":"37726231@N00","secret":"9ddc14ee90","server":"1718","farm":2,"title":"laguna & glacier | cerro fitzroy, argentina.","ispublic":1,"isfriend":0,"isfamily":0},{"id":"25184265443","owner":"37726231@N00","secret":"8ac23cd499","server":"1632","farm":2,"title":"laguna de los tres | cerro fitzroy, argentina.","ispublic":1,"isfriend":0,"isfamily":0},{"id":"25784800236","owner":"37726231@N00","secret":"781de1e729","server":"1693","farm":2,"title":"laguna de los tres | cerro fitzroy, argentina.","ispublic":1,"isfriend":0,"isfamily":0},{"id":"25510196980","owner":"37726231@N00","secret":"f0cfd1d279","server":"1599","farm":2,"title":"laguna de los tres hike | el chalt\u00e9n, argentina.","ispublic":1,"isfriend":0,"isfamily":0},{"id":"25689908072","owner":"37726231@N00","secret":"fa55c9a4c9","server":"1587","farm":2,"title":"cerro fitzroy | el chalt\u00e9n, argentina.","ispublic":1,"isfriend":0,"isfamily":0},{"id":"25180370524","owner":"138406509@N04","secret":"5deffc0f5e","server":"1639","farm":2,"title":"Carlos Alfredo Bascones Zapata","ispublic":1,"isfriend":0,"isfamily":0},{"id":"25689794022","owner":"33134647@N07","secret":"1f0f9dff3f","server":"1703","farm":2,"title":"Would you like to guess what I'm thinking?  :)","ispublic":1,"isfriend":0,"isfamily":0},{"id":"25180274714","owner":"33134647@N07","secret":"0a1c901c1f","server":"1657","farm":2,"title":"Class act...","ispublic":1,"isfriend":0,"isfamily":0},{"id":"25810304795","owner":"138406509@N04","secret":"9d2c565307","server":"1684","farm":2,"title":"Carlos Alfredo Bascones Zapata","ispublic":1,"isfriend":0,"isfamily":0},{"id":"25509608100","owner":"138406509@N04","secret":"0851b31715","server":"1627","farm":2,"title":"Carlos Alfredo Bascones Zapata","ispublic":1,"isfriend":0,"isfamily":0},{"id":"25784194226","owner":"138406509@N04","secret":"9ef3f1e965","server":"1596","farm":2,"title":"Carlos Alfredo Bascones Zapata","ispublic":1,"isfriend":0,"isfamily":0},{"id":"25509551250","owner":"138406509@N04","secret":"23ec1719e8","server":"1691","farm":2,"title":"Carlos Alfredo Bascones Zapata","ispublic":1,"isfriend":0,"isfamily":0},{"id":"25767047856","owner":"88386804@N05","secret":"6a6bf70c4c","server":"1537","farm":2,"title":"serenity","ispublic":1,"isfriend":0,"isfamily":0},{"id":"25180272574","owner":"133007647@N03","secret":"7f71f8838f","server":"1647","farm":2,"title":"Present","ispublic":1,"isfriend":0,"isfamily":0},{"id":"25715431121","owner":"53048268@N04","secret":"dfdda74593","server":"1704","farm":2,"title":"Mt Balingkilat","ispublic":1,"isfriend":0,"isfamily":0},{"id":"25180051914","owner":"81367174@N05","secret":"c7e1f38cf7","server":"1615","farm":2,"title":"mt. kriv\u00e1\u0148","ispublic":1,"isfriend":0,"isfamily":0},{"id":"25715364761","owner":"35428757@N00","secret":"8dc77e33c7","server":"1586","farm":2,"title":"Caisteal an Stalcaire","ispublic":1,"isfriend":0,"isfamily":0},{"id":"25179964864","owner":"35428757@N00","secret":"f0d6df5fd5","server":"1601","farm":2,"title":"Caisteal an Stalcaire","ispublic":1,"isfriend":0,"isfamily":0},{"id":"25179958074","owner":"35428757@N00","secret":"72a41cf44b","server":"1711","farm":2,"title":"Loch A' Choire","ispublic":1,"isfriend":0,"isfamily":0},{"id":"25183762643","owner":"24213796@N02","secret":"261f8c6f11","server":"1682","farm":2,"title":"On The Way To Fall","ispublic":1,"isfriend":0,"isfamily":0},{"id":"25689283362","owner":"132098794@N03","secret":"ecf5439964","server":"1686","farm":2,"title":"On the way","ispublic":1,"isfriend":0,"isfamily":0},{"id":"25689137462","owner":"75553918@N02","secret":"c1b0b948cc","server":"1691","farm":2,"title":"ltr-1713","ispublic":1,"isfriend":0,"isfamily":0},{"id":"25689130902","owner":"75553918@N02","secret":"68bf19e5fe","server":"1633","farm":2,"title":"ltr-1714","ispublic":1,"isfriend":0,"isfamily":0},{"id":"25783792756","owner":"111245738@N08","secret":"ac8d2394fa","server":"1606","farm":2,"title":"US Route 66","ispublic":1,"isfriend":0,"isfamily":0},{"id":"25689024572","owner":"132502738@N05","secret":"a10c67ea46","server":"1655","farm":2,"title":"Baymag Plant #1","ispublic":1,"isfriend":0,"isfamily":0},{"id":"25783873786","owner":"138211892@N05","secret":"6a001037fb","server":"1666","farm":2,"title":"IMG_2896","ispublic":1,"isfriend":0,"isfamily":0},{"id":"25783829056","owner":"138211892@N05","secret":"ebb1ec581d","server":"1664","farm":2,"title":"IMG_2888","ispublic":1,"isfriend":0,"isfamily":0},{"id":"25783777026","owner":"138211892@N05","secret":"537d8b0371","server":"1646","farm":2,"title":"IMG_2887","ispublic":1,"isfriend":0,"isfamily":0},{"id":"25509141020","owner":"138211892@N05","secret":"0ceda84a3d","server":"1618","farm":2,"title":"IMG_2883","ispublic":1,"isfriend":0,"isfamily":0},{"id":"25714681491","owner":"138211892@N05","secret":"a24e17dc9b","server":"1624","farm":2,"title":"IMG_2882","ispublic":1,"isfriend":0,"isfamily":0},{"id":"25714604701","owner":"135370606@N03","secret":"ddd701bd85","server":"1706","farm":2,"title":"Sunset over Lake Garda, Punta Larici","ispublic":1,"isfriend":0,"isfamily":0},{"id":"25509013630","owner":"138211892@N05","secret":"11f24ef158","server":"1598","farm":2,"title":"IMG_2881","ispublic":1,"isfriend":0,"isfamily":0},{"id":"25179201664","owner":"81367174@N05","secret":"a123ff9ac5","server":"1671","farm":2,"title":"Reine Sunrise","ispublic":1,"isfriend":0,"isfamily":0},{"id":"25179183404","owner":"138211892@N05","secret":"c38b46026b","server":"1589","farm":2,"title":"IMG_2877","ispublic":1,"isfriend":0,"isfamily":0},{"id":"25688679462","owner":"138211892@N05","secret":"f17487e648","server":"1603","farm":2,"title":"IMG_2873","ispublic":1,"isfriend":0,"isfamily":0},{"id":"25783548096","owner":"138211892@N05","secret":"7e8d6b6ae9","server":"1590","farm":2,"title":"IMG_2871","ispublic":1,"isfriend":0,"isfamily":0},{"id":"25508924190","owner":"138211892@N05","secret":"bdd0e4d0e4","server":"1686","farm":2,"title":"IMG_2870","ispublic":1,"isfriend":0,"isfamily":0},{"id":"25508896950","owner":"138211892@N05","secret":"642553ed8f","server":"1624","farm":2,"title":"IMG_2869","ispublic":1,"isfriend":0,"isfamily":0},{"id":"25714442301","owner":"13639387@N05","secret":"3efc8dca2a","server":"1599","farm":2,"title":"Nevermore","ispublic":1,"isfriend":0,"isfamily":0},{"id":"25508838090","owner":"41778533@N02","secret":"c911f04363","server":"1657","farm":2,"title":"Northern Lights 2962","ispublic":1,"isfriend":0,"isfamily":0},{"id":"25688520562","owner":"132296773@N05","secret":"e62dcfa624","server":"1645","farm":2,"title":"Portree Harbour","ispublic":1,"isfriend":0,"isfamily":0},{"id":"25714427101","owner":"123569517@N07","secret":"a18854ec38","server":"1648","farm":2,"title":"Bisanne","ispublic":1,"isfriend":0,"isfamily":0}]},"stat":"ok"})