jsonFlickrApi({"photos":{"page":1,"pages":6912,"perpage":50,"total":"345560","photo":[{"id":"25423082064","owner":"81767619@N00","secret":"bb061422ce","server":"1449","farm":2,"title":"Golden sun light","ispublic":1,"isfriend":0,"isfamily":0},{"id":"25423081904","owner":"81767619@N00","secret":"5bea3bacf0","server":"1589","farm":2,"title":"Golden sun light","ispublic":1,"isfriend":0,"isfamily":0},{"id":"26027826605","owner":"81767619@N00","secret":"c984610b1b","server":"1670","farm":2,"title":"Golden sun light","ispublic":1,"isfriend":0,"isfamily":0},{"id":"25425326903","owner":"81767619@N00","secret":"b3c2f394ba","server":"1496","farm":2,"title":"Golden sun light","ispublic":1,"isfriend":0,"isfamily":0},{"id":"25935276272","owner":"125990626@N06","secret":"ccb8ebde89","server":"1599","farm":2,"title":"Terra","ispublic":1,"isfriend":0,"isfamily":0},{"id":"25754948270","owner":"64079936@N08","secret":"7820bf07a9","server":"1668","farm":2,"title":"The Brijuni  or the Brijuni","ispublic":1,"isfriend":0,"isfamily":0},{"id":"25425275343","owner":"113270056@N07","secret":"582e2493fa","server":"1599","farm":2,"title":"Last light","ispublic":1,"isfriend":0,"isfamily":0},{"id":"26027772765","owner":"64079936@N08","secret":"914fb3a7ae","server":"1527","farm":2,"title":"The Brijuni  or the Brijuni","ispublic":1,"isfriend":0,"isfamily":0},{"id":"25935221512","owner":"64079936@N08","secret":"14746b897d","server":"1562","farm":2,"title":"The Brijuni  or the Brijuni","ispublic":1,"isfriend":0,"isfamily":0},{"id":"26001819196","owner":"77721766@N06","secret":"d3cb82d7e7","server":"1650","farm":2,"title":"Sunset","ispublic":1,"isfriend":0,"isfamily":0},{"id":"26001818916","owner":"76198297@N04","secret":"78b8b71ece","server":"1598","farm":2,"title":"Ashley River early sunset","ispublic":1,"isfriend":0,"isfamily":0},{"id":"25961371701","owner":"64079936@N08","secret":"faf0b9c4b8","server":"1653","farm":2,"title":"The Brijuni  or the Brijuni","ispublic":1,"isfriend":0,"isfamily":0},{"id":"26001811276","owner":"64079936@N08","secret":"26966d640e","server":"1552","farm":2,"title":"The Brijuni  or the Brijuni","ispublic":1,"isfriend":0,"isfamily":0},{"id":"25754911050","owner":"64079936@N08","secret":"d09ab8f923","server":"1569","farm":2,"title":"The Brijuni  or the Brijuni","ispublic":1,"isfriend":0,"isfamily":0},{"id":"26001796156","owner":"64079936@N08","secret":"a5fa37090a","server":"1664","farm":2,"title":"The Brijuni  or the Brijuni","ispublic":1,"isfriend":0,"isfamily":0},{"id":"25961348451","owner":"134937053@N04","secret":"6bc581f612","server":"1582","farm":2,"title":"the wave","ispublic":1,"isfriend":0,"isfamily":0},{"id":"25961346821","owner":"39369218@N02","secret":"6215fcd84c","server":"1489","farm":2,"title":"Sunset II","ispublic":1,"isfriend":0,"isfamily":0},{"id":"25961341241","owner":"64079936@N08","secret":"bf35bb78db","server":"1642","farm":2,"title":"The Brijuni  or the Brijuni","ispublic":1,"isfriend":0,"isfamily":0},{"id":"25422974404","owner":"132524549@N03","secret":"99f15fda2c","server":"1533","farm":2,"title":"Last light over Mount St Helens","ispublic":1,"isfriend":0,"isfamily":0},{"id":"25422971784","owner":"64079936@N08","secret":"9f85feb85f","server":"1598","farm":2,"title":"The Brijuni  or the Brijuni","ispublic":1,"isfriend":0,"isfamily":0},{"id":"25422965234","owner":"64079936@N08","secret":"a73a329f74","server":"1526","farm":2,"title":"The Brijuni  or the Brijuni","ispublic":1,"isfriend":0,"isfamily":0},{"id":"25754869350","owner":"64079936@N08","secret":"d80d3dd995","server":"1604","farm":2,"title":"The Brijuni  or the Brijuni","ispublic":1,"isfriend":0,"isfamily":0},{"id":"26001756386","owner":"64079936@N08","secret":"fa8616e462","server":"1443","farm":2,"title":"The Brijuni  or the Brijuni","ispublic":1,"isfriend":0,"isfamily":0},{"id":"25754857330","owner":"64079936@N08","secret":"29deb55b86","server":"1643","farm":2,"title":"The Brijuni  or the Brijuni","ispublic":1,"isfriend":0,"isfamily":0},{"id":"26001743296","owner":"64079936@N08","secret":"d074e21e53","server":"1639","farm":2,"title":"The Brijuni  or the Brijuni","ispublic":1,"isfriend":0,"isfamily":0},{"id":"25422935174","owner":"64079936@N08","secret":"c10118809a","server":"1613","farm":2,"title":"The Brijuni  or the Brijuni","ispublic":1,"isfriend":0,"isfamily":0},{"id":"26001732516","owner":"64079936@N08","secret":"89da4a34bc","server":"1448","farm":2,"title":"The Brijuni  or the Brijuni","ispublic":1,"isfriend":0,"isfamily":0},{"id":"25935120402","owner":"64079936@N08","secret":"ce6b25b74f","server":"1589","farm":2,"title":"The Brijuni  or the Brijuni","ispublic":1,"isfriend":0,"isfamily":0},{"id":"26027657705","owner":"64079936@N08","secret":"f0488a03e6","server":"1718","farm":2,"title":"The Brijuni  or the Brijuni","ispublic":1,"isfriend":0,"isfamily":0},{"id":"25422908184","owner":"64079936@N08","secret":"d00d414149","server":"1518","farm":2,"title":"The Brijuni  or the Brijuni","ispublic":1,"isfriend":0,"isfamily":0},{"id":"25961258491","owner":"64079936@N08","secret":"d2b8ca30e1","server":"1560","farm":2,"title":"The Brijuni  or the Brijuni","ispublic":1,"isfriend":0,"isfamily":0},{"id":"25935082272","owner":"64079936@N08","secret":"038e1ffb7d","server":"1561","farm":2,"title":"The Brijuni  or the Brijuni","ispublic":1,"isfriend":0,"isfamily":0},{"id":"25422875504","owner":"64079936@N08","secret":"66fa4fa040","server":"1515","farm":2,"title":"The Brijuni  or the Brijuni","ispublic":1,"isfriend":0,"isfamily":0},{"id":"25422869134","owner":"64079936@N08","secret":"c321a55755","server":"1518","farm":2,"title":"The Brijuni  or the Brijuni","ispublic":1,"isfriend":0,"isfamily":0},{"id":"25422861234","owner":"64079936@N08","secret":"b4a92c433d","server":"1669","farm":2,"title":"The Brijuni  or the Brijuni","ispublic":1,"isfriend":0,"isfamily":0},{"id":"25425088633","owner":"64079936@N08","secret":"2285cbcdec","server":"1692","farm":2,"title":"The Brijuni  or the Brijuni","ispublic":1,"isfriend":0,"isfamily":0},{"id":"25422844134","owner":"64079936@N08","secret":"a5997922be","server":"1523","farm":2,"title":"The Brijuni  or the Brijuni","ispublic":1,"isfriend":0,"isfamily":0},{"id":"25422835734","owner":"64079936@N08","secret":"845da838ba","server":"1632","farm":2,"title":"The Brijuni  or the Brijuni","ispublic":1,"isfriend":0,"isfamily":0},{"id":"25754736890","owner":"64079936@N08","secret":"2827915e06","server":"1597","farm":2,"title":"The Brijuni  or the Brijuni","ispublic":1,"isfriend":0,"isfamily":0},{"id":"25935014862","owner":"64079936@N08","secret":"2102a96a5f","server":"1546","farm":2,"title":"The Brijuni  or the Brijuni","ispublic":1,"isfriend":0,"isfamily":0},{"id":"25754721840","owner":"64079936@N08","secret":"cb6875b4bc","server":"1524","farm":2,"title":"The Brijuni  or the Brijuni","ispublic":1,"isfriend":0,"isfamily":0},{"id":"26001606126","owner":"64079936@N08","secret":"e330b3d5b2","server":"1603","farm":2,"title":"The Brijuni  or the Brijuni","ispublic":1,"isfriend":0,"isfamily":0},{"id":"25934994412","owner":"64079936@N08","secret":"0259b0a106","server":"1576","farm":2,"title":"The Brijuni  or the Brijuni","ispublic":1,"isfriend":0,"isfamily":0},{"id":"25425016583","owner":"64079936@N08","secret":"f27a189ee8","server":"1592","farm":2,"title":"The Brijuni  or the Brijuni","ispublic":1,"isfriend":0,"isfamily":0},{"id":"25754678310","owner":"64079936@N08","secret":"df88536a76","server":"1694","farm":2,"title":"The Brijuni  or the Brijuni","ispublic":1,"isfriend":0,"isfamily":0},{"id":"26001554356","owner":"64079936@N08","secret":"ed6f500d76","server":"1623","farm":2,"title":"The Brijuni  or the Brijuni","ispublic":1,"isfriend":0,"isfamily":0},{"id":"25424976323","owner":"64079936@N08","secret":"5b95d93e7f","server":"1631","farm":2,"title":"The Brijuni  or the Brijuni","ispublic":1,"isfriend":0,"isfamily":0},{"id":"26001359236","owner":"16701453@N08","secret":"00e9893c89","server":"1453","farm":2,"title":"Benevenagh Sunset","ispublic":1,"isfriend":0,"isfamily":0},{"id":"25944175851","owner":"32012498@N04","secret":"d9607f0e9a","server":"1646","farm":2,"title":"Fort Worden State Park, Port Townsend, WA","ispublic":1,"isfriend":0,"isfamily":0},{"id":"6035915603","owner":"97042891@N00","secret":"979431ba98","server":"6149","farm":7,"title":"Father's Day - Brazil - Dia dos Pais no Brasil","ispublic":1,"isfriend":0,"isfamily":0}]},"stat":"ok"})